Classification using KNN – Teaching statistical learning: An active approach using R and {tidymodels}
…
Before going any farther we should standardize the predictor variables. When making predictions we want to use the same data wrangling steps, and use the mean and standard deviations from the training set to standardize the predictor variables in the testing set to avoid “data leakage”. To do this, we will create a recipe using the {recipes} package from the {tidymodels} framework. A recipe is a way to specify a sequence of data wrangling steps that can be applied to a data set. The recipe will be used to prepare the training data set, and then it will be “baked” to apply the same steps to the testing data set. This ensures that the same transformations are applied to both training and testing data sets, which is crucial for model performance.

To begin a recipe, specify a formula that describes the response variable and the predictor variables. The response variable is placed to the left of the ~ and the predictors are placed on the right separated by +. Additional data processing steps are added with step_*() functions. For example, the step_naomit() function allows us to remove rows with missing values and the step_normalize() function allows us to standardize the variables.

# Recipe definition
knn_recipe <- recipe(monster_real ~ imdb + year_aired, data = scooby_train) |>
  step_normalize(all_numeric_predictors()) |>
  step_naomit(all_predictors())

To view the results, we need to prep() and bake() the recipe. The prep() function prepares the recipe by calculating the necessary statistics (e.g., means and standard deviations) from the training data set, and the bake() function applies the same transformations to the training and testing data sets.

prep(knn_recipe, training = scooby_train) |>
  bake(new_data = scooby_train)

# A tibble: 375 × 3
    imdb year_aired monster_real
   <dbl>      <dbl> <fct>       
 1 1.04       -1.57 fake        
 2 0.636      -1.57 fake        
 3 1.44       -1.57 fake        
 4 0.369      -1.57 fake        
 5 0.904      -1.57 fake        
 6 1.17       -1.57 fake        
 7 1.44       -1.57 fake        
 8 1.04       -1.57 fake        
 9 1.44       -1.57 fake        
10 0.904      -1.51 fake        
# ℹ 365 more rows
…
Call:
kknn::train.kknn(formula = ..y ~ ., data = data, ks = min_rows(3,     data, 5))

Type of response variable: nominal
Minimal misclassification: 0.1333333
Best kernel: optimal
Best k: 3

Making predictions and evaluating performance

To obtain the predicted class labels we can use the augment() function, which adds columns for the predicted class labels (.pred_class), the predicted probabilities of an observation being in that class (.pred_fake and .pred_real here) to the specified data set.

augment(knn_model, new_data = scooby_test)

# A tibble: 126 × 8
   .pred_class .pred_fake .pred_real year_aired  imdb monster_real title        
   <fct>            <dbl>      <dbl>      <dbl> <dbl> <fct>        <chr>        
 1 fake                 1          0       1969   8.1 fake         What a Night…
 2 fake                 1          0       1969   8   fake         Hassle in th…
 3 fake                 1          0       1969   7.5 fake         Decoy for a …
 4 fake                 1          0       1969   8.2 fake         Foul Play in…
 5 fake                 1          0       1969   8.1 fake         The Backstag…
 6 fake                 1          0       1969   8.5 fake         A Gaggle of …
 7 fake                 1          0       1970   8.7 fake         A Night of F…
 8 fake                 1          0       1970   8.3 fake         Nowhere to H…
 9 fake                 1          0       1970   8.5 fake         Jeepers, It'…
10 fake                 1          0       1970   7.9 fake         A Tiki Scare…
# ℹ 116 more rows
# ℹ 1 more variable: suspects_amount <dbl>
…
scooby_test_aug |> specificity(truth = monster_real, estimate = .pred_class)

# A tibble: 1 × 3
  .metric     .estimator .estimate
  <chr>       <chr>          <dbl>
1 specificity binary         0.464

Note: We can also make predictions for all observations in the testing data set using the predict() function. The predict() function takes a fitted model object and a new data set as arguments, and it returns a tibble with the predicted class labels as the only column. While we will typically use augment() to get the predicted class labels along with the original data set, predict() is useful when we only want the predicted class labels.

predict(knn_model, new_data = scooby_test)

# A tibble: 126 × 1
   .pred_class
   <fct>      
 1 fake       
 2 fake       
 3 fake       
 4 fake       
 5 fake       
 6 fake       
 7 fake       
 8 fake       
 9 fake       
10 fake       
# ℹ 116 more rows
…
